<?xml version="1.0" encoding="utf-8"?>
<!-- Generator: Adobe Illustrator 19.1.0, SVG Export Plug-In . SVG Version: 6.00 Build 0)  -->
<svg version="1.1" id="Capa_1" xmlns="http://www.w3.org/2000/svg" xmlns:xlink="http://www.w3.org/1999/xlink" x="0px" y="0px"
	 viewBox="-83 175 444 444" style="enable-background:new -83 175 444 444;" xml:space="preserve">
<style type="text/css">
	.st0{fill:#FFFFFF;}
	.st1{fill:#861719;}
</style>
<circle class="st0" cx="139" cy="397" r="222"/>
<g>
	<path class="st1" d="M189.2,331.1v-10.9c0-22.2-14.6-41-34.8-47.3v-4c0-8.2-4.8-15-11.2-16.9v-11.2c1.8-1.2,3-3.2,3-5.5
		c0-3.6-2.9-6.5-6.5-6.5c-3.6,0-6.5,2.9-6.5,6.5c0,2.3,1.2,4.3,3,5.5v11.2c-6.4,1.9-11.2,8.7-11.2,16.9v4
		c-20.1,6.3-34.8,25.1-34.8,47.3v10.9c10.1-5.9,25.8-11.4,49.5-11.4C163.4,319.8,179.1,325.2,189.2,331.1z M133.5,269
		c0-4.8,2.8-8.8,6.2-8.8c3.3,0,6.2,4,6.2,8.8v2.2c-2-0.3-4.1-0.4-6.2-0.4s-4.1,0.1-6.2,0.4V269z"/>
	<path class="st1" d="M212.5,365.6v14.9l-6.4-3.2l-10-5v-22.1c-2.8-4.1-16.4-20.3-56.4-20.3c-40,0-53.6,16.3-56.4,20.3v22.8l-10,4.7
		l-6.4,3v-15.1H-48.5V386h9.9v88.7H67.9h0.4h142.9h0.4H318V386h9.9v-20.4L212.5,365.6L212.5,365.6z M1.7,450.8h-13v-62.4h13V450.8z
		 M37.7,450.8h-13v-62.4h13V450.8z M142.4,355.2l54.3,27.4H84L142.4,355.2z M97.7,461.7H80.9V399h16.8L97.7,461.7L97.7,461.7z
		 M132.7,461.7h-21V399h21V461.7z M167.7,461.7h-21V399h21V461.7z M198.5,461.7h-16.8V399h16.8L198.5,461.7L198.5,461.7z
		 M254.7,450.8h-13v-62.4h13V450.8z M290.7,450.8h-13v-62.4h13L290.7,450.8L290.7,450.8z"/>
</g>
</svg>
